<?xml version="1.0" encoding="utf-8"?>
<!-- Generator: Adobe Illustrator 21.0.0, SVG Export Plug-In . SVG Version: 6.00 Build 0)  -->
<svg version="1.1" id="Layer_1" xmlns="http://www.w3.org/2000/svg" xmlns:xlink="http://www.w3.org/1999/xlink" x="0px" y="0px"
	 viewBox="0 0 1000 1000" style="enable-background:new 0 0 1000 1000;" xml:space="preserve">
<style type="text/css">
	.st0{fill-rule:evenodd;clip-rule:evenodd;fill:#FFFFFF;}
	.st1{fill-rule:evenodd;clip-rule:evenodd;}
	.st2{fill:none;stroke:#000000;stroke-width:10;stroke-miterlimit:10;}
	.st3{fill:none;stroke:#000000;stroke-width:12;stroke-linecap:round;stroke-miterlimit:10;}
	.st4{fill:#FFFFFF;}
	.st5{fill:#377EEA;}
</style>
<g>
	<g>
		<path d="M110,433h31v121.8h74.2v26.7H110V433z"/>
		<path d="M234.1,471.7h29.1v109.9h-29.1V471.7z M249.8,414.8c12.6,0,22.8,10.2,22.8,22.7c0,12.5-10.2,22.7-22.8,22.7
			c-12.6,0-22.8-10.2-22.8-22.7C227.1,425,237.3,414.8,249.8,414.8L249.8,414.8z"/>
		<path d="M345.4,471.6c7,2.9,12.6,8.2,16.9,15.9v-15.8h28v104.2c0,14.2-2.4,24.9-7.2,32c-8.2,12.4-23.9,18.5-47.2,18.5
			c-14,0-25.5-2.8-34.4-8.3c-8.9-5.5-13.8-13.7-14.7-24.7h31.2c0.8,3.4,2.1,5.8,3.9,7.3c3.1,2.6,8.3,3.9,15.6,3.9
			c10.3,0,17.3-3.5,20.8-10.4c2.3-4.4,3.4-11.9,3.4-22.4V565c-2.8,4.7-5.7,8.2-8.9,10.6c-5.7,4.4-13.1,6.6-22.3,6.6
			c-14.1,0-25.4-5-33.8-14.9c-8.4-9.9-12.6-23.3-12.6-40.3c0-16.3,4.1-30,12.2-41.2c8.1-11.1,19.6-16.7,34.5-16.7
			C336.5,469.1,341.3,470,345.4,471.6z M355.2,550.4c4.6-5.1,6.9-13.2,6.9-24.2c0-10.4-2.2-18.3-6.6-23.8
			c-4.4-5.4-10.3-8.2-17.6-8.2c-10,0-17,4.7-20.8,14.2c-2,5-3,11.3-3,18.6c0,6.4,1.1,12.1,3.2,17c3.9,9.3,10.8,13.9,20.9,13.9
			C344.9,558,350.6,555.5,355.2,550.4z"/>
		<path d="M496.1,472.3c5.5,2.4,10.1,6,13.6,10.8c3,4.1,4.8,8.3,5.5,12.7s1,11.4,1,21.2v64.6h-29.3v-66.9c0-5.9-1-10.7-3-14.3
			c-2.6-5.1-7.5-7.7-14.8-7.7c-7.5,0-13.3,2.5-17.2,7.6s-5.9,12.3-5.9,21.7v59.5h-28.7V433.5h28.7v52.4c4.1-6.4,8.9-10.8,14.4-13.4
			c5.5-2.5,11.2-3.8,17.2-3.8C484.5,468.8,490.6,470,496.1,472.3z"/>
		<path d="M532,493.2v-20.5h15.3v-30.6h28.4v30.6h17.8v20.5h-17.8v58.1c0,4.5,0.6,7.3,1.7,8.4c1.1,1.1,4.6,1.7,10.5,1.7
			c0.9,0,1.8,0,2.8-0.1c1,0,1.9-0.1,2.9-0.2v21.5l-13.6,0.5c-13.6,0.5-22.8-1.9-27.8-7.1c-3.2-3.3-4.8-8.4-4.8-15.2v-67.6H532z"/>
	</g>
	<g>
		<path d="M818.3,451.8c12.6,0,22.8,10.2,22.8,22.7c0,12.5-10.2,22.7-22.8,22.7c-12.6,0-22.8-10.2-22.8-22.7
			C795.6,462,805.8,451.8,818.3,451.8L818.3,451.8z M803.7,506.9h29.1v74.7h-29.1V506.9z"/>
		<path d="M890,581.6h-28.7V433H890V581.6z"/>
	</g>
	<g>
		<g>
			<path d="M695.6,584.4c-41.5,0-75.3-33.8-75.3-75.3c0-41.5,33.8-75.3,75.3-75.3c41.5,0,75.3,33.8,75.3,75.3
				C771,550.6,737.2,584.4,695.6,584.4z M695.6,444c-35.9,0-65,29.2-65,65s29.2,65,65,65c35.9,0,65-29.2,65-65S731.5,444,695.6,444z
				"/>
		</g>
		<g>
			<g>
				<path d="M827.6,445.5c-2,0-3.6-1.6-3.6-3.6c0-33.8-27.5-61.2-61.2-61.2c-2,0-3.6-1.6-3.6-3.6s1.6-3.6,3.6-3.6
					c37.8,0,68.5,30.7,68.5,68.5C831.2,443.9,829.6,445.5,827.6,445.5z"/>
			</g>
			<g>
				<path d="M808.6,445.5c-2,0-3.6-1.6-3.6-3.6c0-23.3-19-42.2-42.2-42.2c-2,0-3.6-1.6-3.6-3.6s1.6-3.6,3.6-3.6
					c27.3,0,49.5,22.2,49.5,49.5C812.2,443.9,810.6,445.5,808.6,445.5z"/>
			</g>
			<g>
				<path d="M787.6,445.5c-2,0-3.6-1.6-3.6-3.6c0-11.7-9.6-21.3-21.3-21.3c-2,0-3.6-1.6-3.6-3.6c0-2,1.6-3.6,3.6-3.6
					c15.7,0,28.5,12.8,28.5,28.5C791.2,443.9,789.6,445.5,787.6,445.5z"/>
			</g>
		</g>
		<g>
			<g>
				<path d="M718.2,493.1l-22.6-22.6L673,493.1c-12.5,12.5-12.5,32.7,0,45.2l0,0c12.5,12.5,32.7,12.5,45.2,0h0
					C730.7,525.8,730.7,505.5,718.2,493.1z"/>
			</g>
			<g>
				<path class="st4" d="M677.6,507.3c0,0-9.5,29.8,21.3,26.5C698.9,533.8,677.3,529.6,677.6,507.3z"/>
			</g>
		</g>
	</g>
</g>
</svg>
